Working with GPS points • motus
…
Now let’s retrieve the daily median location of GPS points for these data. Note that we use both the original database gps_tags as well as the data subset knots.

index_GPS <- getGPS(src = gps_tags, data = knots)

This table is an index matching GPS points to specific hitID, so the next step is to join it into your data subset using the left_join() function from the dplyr package. Note that at this point, we need to use collect() to ensure that knots is ‘flat’ (i.e. a data frame, not a database; see Converting to flat data for more details).

knots_GPS <- left_join(collect(knots), index_GPS, by = "hitID")

We can subset the columns to see if it worked as expected

knots_GPS %>%
  select(hitID, runID, batchID, ts, contains("gps"))

## # A tibble: 849 × 9
##         hitID    runID batchID       ts gpsLat gpsLon gpsAlt gpsTs_min gpsTs_max
##       <int64>    <int>   <int>    <dbl>  <dbl>  <dbl>  <dbl>     <dbl>     <dbl>
##  1 1283703132 51412006  795408   1.57e9   32.6  -80.1   12.8    1.57e9    1.57e9
##  2 1283703133 51412006  795408   1.57e9   32.6  -80.1   12.8    1.57e9    1.57e9
##  3 1283703134 51412007  795408   1.57e9   32.6  -80.1   12.8    1.57e9    1.57e9
##  4 1283703135 51412007  795408   1.57e9   32.6  -80.1   12.8    1.57e9    1.57e9
##  5 1283703136 51412008  795408   1.57e9   32.6  -80.1   12.8    1.57e9    1.57e9
##  6 1283703137 51412008  795408   1.57e9   32.6  -80.1   12.8    1.57e9    1.57e9
##  7 1283704910 51412163  795408   1.57e9   32.6  -80.1   12.8    1.57e9    1.57e9
##  8 1283704911 51412163  795408   1.57e9   32.6  -80.1   12.8    1.57e9    1.57e9
##  9 1283704912 51412164  795408   1.57e9   32.6  -80.1   12.8    1.57e9    1.57e9
## 10 1283704913 51412164  795408   1.57e9   32.6  -80.1   12.8    1.57e9    1.57e9
## # … with 839 more rows
…
by can be one of three options:

the median location within by = X minutes of a hitID

here, X can be any number greater than zero and represents the size of the time block in minutes over which to calculate a median location

be aware that you should ideally not chose a period smaller than the frequency at which GPS fixes are recorded, or some hits will not be associated with GPS

For example, the median location within 60 minutes of a hitID.

index_GPS <- getGPS(src = gps_tags, data = knots, by = 60)
index_GPS

## # A tibble: 849 × 6
##         hitID gpsLat gpsLon gpsAlt  gpsTs_min  gpsTs_max
##       <int64>  <dbl>  <dbl>  <dbl>      <dbl>      <dbl>
##  1 1283703132   32.6  -80.1    4.9 1565285386 1565286652
##  2 1283703133   32.6  -80.1    4.9 1565285386 1565286652
##  3 1283703134   32.6  -80.1    4.9 1565285386 1565286652
##  4 1283703135   32.6  -80.1    4.9 1565285386 1565286652
##  5 1283703136   32.6  -80.1    4.9 1565285386 1565286652
##  6 1283703137   32.6  -80.1    4.9 1565285386 1565286652
##  7 1283704910   32.6  -80.1    4.9 1565285386 1565286652
##  8 1283704911   32.6  -80.1    4.9 1565285386 1565286652
##  9 1283704912   32.6  -80.1    4.9 1565285386 1565286652
## 10 1283704913   32.6  -80.1    4.9 1565285386 1565286652
## # … with 839 more rows

by = "daily" median location (default, used in first example)

similar to by = X except the duration is 24hr (same as by = 1440)

this method is most suitable for receiver deployments at fixed location.

index_GPS <- getGPS(src = gps_tags, data = knots, by = "daily")
index_GPS

## # A tibble: 849 × 6
##         hitID gpsLat gpsLon gpsAlt  gpsTs_min  gpsTs_max
##       <int64>  <dbl>  <dbl>  <dbl>      <dbl>      <dbl>
##  1 1283703132   32.6  -80.1   12.8 1565223439 1565308252
##  2 1283703133   32.6  -80.1   12.8 1565223439 1565308252
##  3 1283703134   32.6  -80.1   12.8 1565223439 1565308252
##  4 1283703135   32.6  -80.1   12.8 1565223439 1565308252
##  5 1283703136   32.6  -80.1   12.8 1565223439 1565308252
##  6 1283703137   32.6  -80.1   12.8 1565223439 1565308252
##  7 1283704910   32.6  -80.1   12.8 1565223439 1565308252
##  8 1283704911   32.6  -80.1   12.8 1565223439 1565308252
##  9 1283704912   32.6  -80.1   12.8 1565223439 1565308252
## 10 1283704913   32.6  -80.1   12.8 1565223439 1565308252
## # … with 839 more rows

or the by = "closest" location in time

individual GPS lat/lons are returned, matching the closest hitID timestamp

this method is most accurate for mobile deployments, but is potentially slower than by = X.

you can also specify a cutoff which will only match GPS records which are within cutoff = X minutes of the hit. This way you can avoid having situations where the ‘closest’ GPS record is actually days away.

For example, the closest location in time noted within 2 hours of a hit.

index_GPS <- getGPS(src = gps_tags, data = knots, by = "closest", cutoff = 120)
index_GPS

## # A tibble: 849 × 6
##         hitID    gpsID gpsLat gpsLon gpsAlt      gpsTs
##       <int64>    <int>  <dbl>  <dbl>  <dbl>      <dbl>
##  1 1283703132 25452618   32.6  -80.1  -14.1 1565283052
##  2 1283703133 27464430   43.4  -80.6  372.  1565285386
##  3 1283703134 25452618   32.6  -80.1  -14.1 1565283052
##  4 1283703135 27464430   43.4  -80.6  372.  1565285386
##  5 1283703136 25452618   32.6  -80.1  -14.1 1565283052
##  6 1283703137 27464430   43.4  -80.6  372.  1565285386
##  7 1283704910 27464430   43.4  -80.6  372.  1565285386
##  8 1283704911 22797974   32.6  -80.1 -130   1565285389
##  9 1283704912 27464430   43.4  -80.6  372.  1565285386
## 10 1283704913 22797974   32.6  -80.1 -130   1565285389
## # … with 839 more rows
…
## nodeData:     0 new batch records to check

df.alltagsGPS <- tbl(sql.motus, "alltagsGPS") %>%
  mutate(recvLat = if_else(is.na(gpsLat) | gpsLat %in% c(0, 999), 
                           recvDeployLat, gpsLat),
         recvLon = if_else(is.na(gpsLon) | gpsLon %in% c(0, 999), 
                           recvDeployLon, gpsLon),
         recvAlt = if_else(is.na(gpsAlt), recvDeployAlt, gpsAlt)) %>%
  collect()  # Flatten the data

# Take a look
select(df.alltagsGPS, hitID, recvLat, recvLon)

## # A tibble: 188,354 × 3
##      hitID recvLat recvLon
##    <int64>   <dbl>   <dbl>
##  1   45107    42.6   -72.7
##  2   45108    42.6   -72.7
##  3   45109    42.6   -72.7
##  4   45110    42.6   -72.7
##  5   45111    42.6   -72.7
##  6  199885    42.7   -72.5
##  7  199886    42.7   -72.5
##  8  199887    42.7   -72.5
##  9  199888    42.7   -72.5
## 10  199889    42.7   -72.5
## # … with 188,344 more rows
…
