…
# Match hits to GPS according to the closest timestamp, but limit to within
# 20min of each other
my_gps <- getGPS(sql_motus, by = "closest", cutoff = 20)
my_gps
#> [1] hitID  gpsTs  gpsLat gpsLon gpsAlt
#> <0 rows> (or 0-length row.names)

# To return all hits, regardless of whether they match a GPS record

my_gps <- getGPS(sql_motus, keepAll = TRUE)
my_gps
#> # A tibble: 109,474 × 4
#>      hitID gpsLat gpsLon gpsAlt
#>    <int64>  <dbl>  <dbl>  <dbl>
#>  1   45107     NA     NA     NA
#>  2   45108     NA     NA     NA
#>  3   45109     NA     NA     NA
#>  4   45110     NA     NA     NA
#>  5   45111     NA     NA     NA
#>  6  199885     NA     NA     NA
#>  7  199886     NA     NA     NA
#>  8  199887     NA     NA     NA
#>  9  199888     NA     NA     NA
#> 10  199889     NA     NA     NA
#> # ℹ 109,464 more rows
…
