Chapter 5 - Data Cleaning • motus
…
Since we have already filtered dubious detections, these remaining ones don’t seem immediately unreliable (all with runs of at least 6). If you are interested, you can re-run the code above, but on the full data frame (tbl(sql.motus, "alltags")) containing run lengths of 2 or 3. You will see that there are likely false positive detections at these sites, that were already eliminated by filtering. These additional detections provide further evidence that these sites experienced some radio noise during these particular months, resulting in some false positive detections.

You may also be interested more generally in exploring which data have only short run lengths. For example, the following code shows the maximum run length at all sites by month (for those runs which haven’t been removed by filtering).

df.alltags.sub %>%
  mutate(month = month(ts)) %>%
  group_by(recvDeployName, month) %>%
  summarize(max.rl = max(runLen)) %>%
  spread(key = month, value = max.rl)

## `summarise()` has grouped output by 'recvDeployName'. You can override using the `.groups` argument.

## # A tibble: 43 × 8
## # Groups:   recvDeployName [43]
##    recvDeployName          `2`   `3`   `4`   `5`   `8`   `9`  `10`
##    <chr>                 <int> <int> <int> <int> <int> <int> <int>
##  1 Assateague State Park    NA    NA    NA    NA    NA     6    NA
##  2 BennettMeadow            NA    NA    NA    NA    NA    NA    11
##  3 BISE                     NA    NA    NA    NA    NA    NA     6
##  4 Bombay Hook              NA    NA    NA    NA    NA    53    NA
##  5 Brier2                   NA    NA    NA    NA    NA    29    NA
##  6 BSC HQ                   NA    NA    NA    21    NA    NA    NA
##  7 BULL                     NA    NA    NA    NA    NA    38     5
##  8 Comeau (Marshalltown)    NA    NA    NA    NA    NA     4    NA
##  9 CONY                     NA    NA    NA    NA    NA    NA     7
## 10 D'Estimauville           NA    NA    NA    NA    NA    40    NA
## # … with 33 more rows
…
