Working with GPS points • motus
…
Now let’s retrieve the daily median location of GPS points for these data. Note that we use both the original database gps_tags as well as the data subset rails. Also note that the getGPS() function requires the original, numeric ts column, so if you want a date/time column it’s best to rename it (i.e. time = as_datetime(ts)).

index_GPS <- getGPS(src = gps_tags, data = rails)

This table is an index matching GPS points to specific hitID, so the next step is to join it into your data subset using the left_join() function from the dplyr package. Note that at this point, we need to use collect() to ensure that rails is ‘flat’ (i.e. a data frame, not a database; see Converting to flat data for more details).

rails_GPS <- left_join(collect(rails), index_GPS, by = "hitID")

We can subset the columns to see if it worked as expected (we filter to non-missing, because not all hits have a GPS point when using the default matching).

rails_GPS %>%
  select(hitID, runID, batchID, ts, contains("gps")) %>%
  filter(!is.na(gpsLat))

## # A tibble: 92 × 9
##         hitID    runID batchID       ts gpsLat gpsLon gpsAlt gpsTs_min gpsTs_max
##         <int>    <int>   <int>    <dbl>  <dbl>  <dbl>  <dbl>     <dbl>     <dbl>
##  1 1136575629 47145854  742386   1.50e9   44.0  -79.5   313.    1.50e9    1.50e9
##  2 1136575630 47145854  742386   1.50e9   44.0  -79.5   313.    1.50e9    1.50e9
##  3 1136576447 47146254  742386   1.50e9   44.0  -79.5   313.    1.50e9    1.50e9
##  4 1136576448 47146254  742386   1.50e9   44.0  -79.5   313.    1.50e9    1.50e9
##  5 1136578247 47147138  742386   1.50e9   44.0  -79.5   319.    1.50e9    1.50e9
##  6 1136578248 47147138  742386   1.50e9   44.0  -79.5   319.    1.50e9    1.50e9
##  7 1136578942 47147480  742386   1.50e9   44.0  -79.5   318.    1.50e9    1.50e9
##  8 1136578943 47147480  742386   1.50e9   44.0  -79.5   318.    1.50e9    1.50e9
##  9 1136578998 47147506  742386   1.50e9   44.0  -79.5   318.    1.50e9    1.50e9
## 10 1136578999 47147506  742386   1.50e9   44.0  -79.5   318.    1.50e9    1.50e9
## # … with 82 more rows
…
by can be one of three options:

the median location within by = X minutes of a hitID

here, X can be any number greater than zero and represents the size of the time block in minutes over which to calculate a median location

be aware that you should ideally not chose a period smaller than the frequency at which GPS fixes are recorded, or some hits will not be associated with GPS

For example, the median location within 60 minutes of a hitID.

index_GPS <- getGPS(src = gps_tags, data = rails, by = 60)
index_GPS

## # A tibble: 80 × 6
##         hitID gpsLat gpsLon gpsAlt  gpsTs_min  gpsTs_max
##         <int>  <dbl>  <dbl>  <dbl>      <dbl>      <dbl>
##  1 1136575629   44.0  -79.5   312. 1496846031 1496846031
##  2 1136575630   44.0  -79.5   312. 1496846031 1496846031
##  3 1136576447   44.0  -79.5   349  1496856831 1496856831
##  4 1136576448   44.0  -79.5   349  1496856831 1496856831
##  5 1136578247   44.0  -79.5   229. 1497019734 1497019734
##  6 1136578248   44.0  -79.5   229. 1497019734 1497019734
##  7 1136578942   44.0  -79.5   323. 1497100736 1497100736
##  8 1136578943   44.0  -79.5   323. 1497100736 1497100736
##  9 1136578998   44.0  -79.5   323. 1497100736 1497100736
## 10 1136578999   44.0  -79.5   323. 1497100736 1497100736
## # … with 70 more rows

by = "daily" median location (default, used in first example)

similar to by = X except the duration is 24hr (same as by = 1440)

this method is most suitable for receiver deployments at fixed location.

index_GPS <- getGPS(src = gps_tags, data = rails, by = "daily")
index_GPS

## # A tibble: 92 × 6
##         hitID gpsLat gpsLon gpsAlt  gpsTs_min  gpsTs_max
##         <int>  <dbl>  <dbl>  <dbl>      <dbl>      <dbl>
##  1 1136575629   44.0  -79.5   313. 1496797130 1496879031
##  2 1136575630   44.0  -79.5   313. 1496797130 1496879031
##  3 1136576447   44.0  -79.5   313. 1496797130 1496879031
##  4 1136576448   44.0  -79.5   313. 1496797130 1496879031
##  5 1136578247   44.0  -79.5   319. 1496968733 1497050035
##  6 1136578248   44.0  -79.5   319. 1496968733 1497050035
##  7 1136578942   44.0  -79.5   318. 1497053935 1497137937
##  8 1136578943   44.0  -79.5   318. 1497053935 1497137937
##  9 1136578998   44.0  -79.5   318. 1497053935 1497137937
## 10 1136578999   44.0  -79.5   318. 1497053935 1497137937
## # … with 82 more rows

or the by = "closest" location in time

individual GPS lat/lons are returned, matching the closest hitID timestamp

this method is most accurate for mobile deployments, but is potentially slower than by = X.

you can also specify a cutoff which will only match GPS records which are within cutoff = X minutes of the hit. This way you can avoid having situations where the ‘closest’ GPS record is actually days away.

For example, the closest location in time noted within 2 hours of a hit.

index_GPS <- getGPS(src = gps_tags, data = rails, by = "closest", cutoff = 120)
index_GPS

## # A tibble: 92 × 6
##         hitID    gpsID gpsLat gpsLon gpsAlt      gpsTs
##         <int>    <int>  <dbl>  <dbl>  <dbl>      <dbl>
##  1 1136575629 22242037   44.0  -79.5   312. 1496846031
##  2 1136575630 22242037   44.0  -79.5   312. 1496846031
##  3 1136576447 22242040   44.0  -79.5   349  1496856831
##  4 1136576448 22242040   44.0  -79.5   349  1496856831
##  5 1136578247 22242081   44.0  -79.5   229. 1497019734
##  6 1136578248 22242081   44.0  -79.5   229. 1497019734
##  7 1136578942 22242103   44.0  -79.5   323. 1497100736
##  8 1136578943 22242103   44.0  -79.5   323. 1497100736
##  9 1136578998 22242103   44.0  -79.5   323. 1497100736
## 10 1136578999 22242103   44.0  -79.5   323. 1497100736
## # … with 82 more rows

To keep all hitIDs, regardless of whether they match to GPS data or not, use the argument keepAll = TRUE. This results in NA for gpsLat, gpsLon and gpsAlt where there is no corresponding GPS hit (otherwise the hit is omitted).

index_GPS <- getGPS(src = gps_tags, data = rails, keepAll = TRUE)
index_GPS

## # A tibble: 2,758 × 6
##       hitID gpsLat gpsLon gpsAlt gpsTs_min gpsTs_max
##       <int>  <dbl>  <dbl>  <dbl>     <dbl>     <dbl>
##  1 32811108     NA     NA     NA        NA        NA
##  2 32811109     NA     NA     NA        NA        NA
##  3 32912898     NA     NA     NA        NA        NA
##  4 32912899     NA     NA     NA        NA        NA
##  5 32913271     NA     NA     NA        NA        NA
##  6 32913272     NA     NA     NA        NA        NA
##  7 32913404     NA     NA     NA        NA        NA
##  8 32913405     NA     NA     NA        NA        NA
##  9 32913717     NA     NA     NA        NA        NA
## 10 32913718     NA     NA     NA        NA        NA
## # … with 2,748 more rows
…
## Total deprecated batches: 6
## New deprecated batches: 0

df.alltagsGPS <- tbl(sql.motus, "alltagsGPS") %>%
  mutate(recvLat = if_else(is.na(gpsLat) | gpsLat %in% c(0, 999), 
                           recvDeployLat, gpsLat),
         recvLon = if_else(is.na(gpsLon) | gpsLon %in% c(0, 999), 
                           recvDeployLon, gpsLon),
         recvAlt = if_else(is.na(gpsAlt), recvDeployAlt, gpsAlt)) %>%
  collect()  # Flatten the data

# Take a look
select(df.alltagsGPS, hitID, recvLat, recvLon)

## # A tibble: 187,879 × 3
##      hitID recvLat recvLon
##    <int64>   <dbl>   <dbl>
##  1   45107    42.6   -72.7
##  2   45108    42.6   -72.7
##  3   45109    42.6   -72.7
##  4   45110    42.6   -72.7
##  5   45111    42.6   -72.7
##  6  199885    42.7   -72.5
##  7  199886    42.7   -72.5
##  8  199887    42.7   -72.5
##  9  199888    42.7   -72.5
## 10  199889    42.7   -72.5
## # … with 187,869 more rows
…
