…
For example, the following code adds a `probability` column to the
sample project data.

``` r
alltags_filtered4 <- filterByActivity(sql_motus, return = "all") %>%
  select(hitID, runID, batchID, motusTagID, runLen, probability)

alltags_filtered4
```

    ## # A tibble: 108,999 × 6
    ##       hitID   runID batchID motusTagID runLen probability
    ##     <int64>   <int>   <int>      <int>  <int>       <dbl>
    ##  1 57633911 3923241   27722      16052      2           0
    ##  2 57633913 3923242   27722      16052      2           0
    ##  3 57633915 3923243   27722      16052      2           0
    ##  4 57633917 3923244   27722      16052      2           0
    ##  5 57633919 3923245   27722      16052      2           0
    ##  6 57633912 3923241   27722      16052      2           0
    ##  7 57633914 3923242   27722      16052      2           0
    ##  8 57633916 3923243   27722      16052      2           0
    ##  9 57633918 3923244   27722      16052      2           0
    ## 10 57633920 3923245   27722      16052      2           0
    ## # ℹ 108,989 more rows
…
