Working with GPS points • motus
…
rails_GPS <- left_join(collect(rails), index_GPS, by = "hitID")

We can subset the columns to see if it worked as expected (we filter
to non-missing, because not all hits have a GPS point when using the
default matching).

rails_GPS %>%
  select(hitID, runID, batchID, ts, contains("gps")) %>%
  filter(!is.na(gpsLat))

## # A tibble: 90 × 9
##         hitID    runID batchID       ts gpsLat gpsLon gpsAlt gpsTs_min gpsTs_max
##         <int>    <int>   <int>    <dbl>  <dbl>  <dbl>  <dbl>     <dbl>     <dbl>
##  1   34126729  8211543  127792   1.51e9   40.4  -76.1   106.    1.51e9    1.51e9
##  2   34126730  8211543  127792   1.51e9   40.4  -76.1   106.    1.51e9    1.51e9
##  3   34126795  8211576  127792   1.51e9   40.4  -76.1   106.    1.51e9    1.51e9
##  4   34126796  8211576  127792   1.51e9   40.4  -76.1   106.    1.51e9    1.51e9
##  5   34126846  8211593  127792   1.51e9   40.4  -76.1   106.    1.51e9    1.51e9
##  6   34126847  8211593  127792   1.51e9   40.4  -76.1   106.    1.51e9    1.51e9
##  7   34128916  8212308  132026   1.51e9   40.4  -76.1   105.    1.51e9    1.51e9
##  8   34128917  8212308  132026   1.51e9   40.4  -76.1   105.    1.51e9    1.51e9
##  9 1136575629 47145854  742386   1.50e9   44.0  -79.5   313.    1.50e9    1.50e9
## 10 1136575630 47145854  742386   1.50e9   44.0  -79.5   313.    1.50e9    1.50e9
## # ℹ 80 more rows
…
here, X can be any number greater than zero and
represents the size of the time block in minutes over which to calculate
a median location

be aware that you should ideally not chose a period smaller than the
frequency at which GPS fixes are recorded, or some hits will not be
associated with GPS

For example, the median location within 60 minutes of a
hitID.

index_GPS <- getGPS(src = gps_tags, data = rails, by = 60)
index_GPS

## # A tibble: 78 × 6
##         hitID gpsLat gpsLon gpsAlt  gpsTs_min  gpsTs_max
##         <int>  <dbl>  <dbl>  <dbl>      <dbl>      <dbl>
##  1   34126729   40.4  -76.1   111. 1505761796 1505761796
##  2   34126730   40.4  -76.1   111. 1505761796 1505761796
##  3   34126795   40.4  -76.1   110. 1505776197 1505776197
##  4   34126796   40.4  -76.1   110. 1505776197 1505776197
##  5   34126846   40.4  -76.1   106. 1505837998 1505837998
##  6   34126847   40.4  -76.1   106. 1505837998 1505837998
##  7   34128916   40.4  -76.1   100. 1505350490 1505350490
##  8   34128917   40.4  -76.1   100. 1505350490 1505350490
##  9 1136575629   44.0  -79.5   312. 1496846031 1496846031
## 10 1136575630   44.0  -79.5   312. 1496846031 1496846031
## # ℹ 68 more rows

by = "daily" median location
(default, used in first example)

similar to by = X except the duration is 24hr (same as
by = 1440)

this method is most suitable for receiver deployments at fixed
location.

index_GPS <- getGPS(src = gps_tags, data = rails, by = "daily")
index_GPS

## # A tibble: 90 × 6
##         hitID gpsLat gpsLon gpsAlt  gpsTs_min  gpsTs_max
##         <int>  <dbl>  <dbl>  <dbl>      <dbl>      <dbl>
##  1   34126729   40.4  -76.1   106. 1505693095 1505776197
##  2   34126730   40.4  -76.1   106. 1505693095 1505776197
##  3   34126795   40.4  -76.1   106. 1505693095 1505776197
##  4   34126796   40.4  -76.1   106. 1505693095 1505776197
##  5   34126846   40.4  -76.1   106. 1505780097 1505863198
##  6   34126847   40.4  -76.1   106. 1505780097 1505863198
##  7   34128916   40.4  -76.1   105. 1505350490 1505433291
##  8   34128917   40.4  -76.1   105. 1505350490 1505433291
##  9 1136575629   44.0  -79.5   313. 1496797130 1496879031
## 10 1136575630   44.0  -79.5   313. 1496797130 1496879031
## # ℹ 80 more rows
…
this method is most accurate for mobile deployments, but is
potentially slower than by = X.

you can also specify a cutoff which will only match GPS
records which are within cutoff = X minutes of the hit.
This way you can avoid having situations where the ‘closest’ GPS record
is actually days away.

For example, the closest location in time noted within 2 hours of a
hit.

index_GPS <- getGPS(src = gps_tags, data = rails, by = "closest", cutoff = 120)
index_GPS

## # A tibble: 90 × 6
##         hitID    gpsID gpsLat gpsLon gpsAlt      gpsTs
##         <int>    <int>  <dbl>  <dbl>  <dbl>      <dbl>
##  1   34126729 23978179   40.4  -76.1   111. 1505761796
##  2   34126730 23978179   40.4  -76.1   111. 1505761796
##  3   34126795 23978184   40.4  -76.1   100. 1505780097
##  4   34126796 23978184   40.4  -76.1   100. 1505780097
##  5   34126846 23978200   40.4  -76.1   106. 1505837998
##  6   34126847 23978200   40.4  -76.1   106. 1505837998
##  7   34128916 23978065   40.4  -76.1   100. 1505350490
##  8   34128917 23978065   40.4  -76.1   100. 1505350490
##  9 1136575629 22242037   44.0  -79.5   312. 1496846031
## 10 1136575630 22242037   44.0  -79.5   312. 1496846031
## # ℹ 80 more rows

To keep all hitIDs, regardless of whether they match to
GPS data or not, use the argument keepAll = TRUE. This
results in NA for gpsLat, gpsLon
and gpsAlt where there is no corresponding GPS hit
(otherwise the hit is omitted).

index_GPS <- getGPS(src = gps_tags, data = rails, keepAll = TRUE)
index_GPS

## # A tibble: 2,748 × 6
##       hitID gpsLat gpsLon gpsAlt gpsTs_min gpsTs_max
##       <int>  <dbl>  <dbl>  <dbl>     <dbl>     <dbl>
##  1 32811108     NA     NA     NA        NA        NA
##  2 32811109     NA     NA     NA        NA        NA
##  3 32912898     NA     NA     NA        NA        NA
##  4 32912899     NA     NA     NA        NA        NA
##  5 32913271     NA     NA     NA        NA        NA
##  6 32913272     NA     NA     NA        NA        NA
##  7 32913404     NA     NA     NA        NA        NA
##  8 32913405     NA     NA     NA        NA        NA
##  9 32913717     NA     NA     NA        NA        NA
## 10 32913718     NA     NA     NA        NA        NA
## # ℹ 2,738 more rows
…
## Total deprecated batches: 6
## New deprecated batches: 0

df_alltagsGPS <- tbl(sql_motus, "alltagsGPS") %>%
  mutate(recvLat = if_else(is.na(gpsLat) | gpsLat %in% c(0, 999), 
                           recvDeployLat, gpsLat),
         recvLon = if_else(is.na(gpsLon) | gpsLon %in% c(0, 999), 
                           recvDeployLon, gpsLon),
         recvAlt = if_else(is.na(gpsAlt), recvDeployAlt, gpsAlt)) %>%
  collect()  # Flatten the data

# Take a look
select(df_alltagsGPS, hitID, recvLat, recvLon)

## # A tibble: 108,999 × 3
##      hitID recvLat recvLon
##    <int64>   <dbl>   <dbl>
##  1   45107    42.6   -72.7
##  2   45108    42.6   -72.7
##  3   45109    42.6   -72.7
##  4   45110    42.6   -72.7
##  5   45111    42.6   -72.7
##  6  199885    42.7   -72.5
##  7  199886    42.7   -72.5
##  8  199887    42.7   -72.5
##  9  199888    42.7   -72.5
## 10  199889    42.7   -72.5
## # ℹ 108,989 more rows
…
